<svg width="327" height="322" viewBox="0 0 327 322" fill="none" xmlns="http://www.w3.org/2000/svg">
<path d="M15.4656 0H327V311.534H15.4656V0Z" fill="white"/>
<path d="M15.4656 0V-2H13.4656V0H15.4656ZM327 0H329V-2H327V0ZM327 311.534V313.534H329V311.534H327ZM15.4656 311.534H13.4656V313.534H15.4656V311.534ZM15.4656 2H327V-2H15.4656V2ZM325 0V311.534H329V0H325ZM327 309.534H15.4656V313.534H327V309.534ZM17.4656 311.534V0H13.4656V311.534H17.4656Z" fill="#AAAAAA"/>
<path d="M0 22H300V322H0V22Z" fill="#EEEEEE"/>
<path d="M6 28L294 316" stroke="#AAAAAA" stroke-width="2"/>
<path d="M294 28L5.99999 316" stroke="#AAAAAA" stroke-width="2"/>
<path d="M0 22V20H-2V22H0ZM300 22H302V20H300V22ZM300 322V324H302V322H300ZM0 322H-2V324H0V322ZM0 24H300V20H0V24ZM298 22V322H302V22H298ZM300 320H0V324H300V320ZM2 322V22H-2V322H2Z" fill="#AAAAAA"/>
</svg>
